verilogLibrary/sv/Assertion_Example_practical_guide/dump.vcd
$date
    Apr 12, 2018  02:02:00
$end
$version
    TOOL:	ncsim	15.20-s038
$end
$timescale
    1 ns
$end

$scope module test_fsm $end
$var reg       1 !    clk  $end
$var reg       7 "    addr_cnt [6:0] $end

$scope module if1 $end
$var wire      1 #    clk  $end
$var reg       1 $    get_data  $end
$var reg       1 %    reset_  $end
$var reg       8 &    data [7:0] $end
$var reg       1 '    rd  $end
$var reg       1 (    sipo_en  $end
$var reg       1 )    latch_en  $end
$var reg       1 *    dp1_en  $end
$var reg       1 +    dp2_en  $end
$var reg       1 ,    dp3_en  $end
$var reg       1 -    dp4_en  $end
$var reg       1 .    wr  $end
$var reg       1 /    done_frame  $end
$var reg      18 0    rd_addr [17:0] $end

$scope clocking cb $end
$var reg       1 1    get_data  $end
$var reg       1 2    reset_  $end
$var reg       8 3    data [7:0] $end
$var reg       1 4    rd  $end
$var reg       1 5    sipo_en  $end
$var reg       1 6    latch_en  $end
$var reg       1 7    dp1_en  $end
$var reg       1 8    dp2_en  $end
$var reg       1 9    dp3_en  $end
$var reg       1 :    dp4_en  $end
$var reg       1 ;    wr  $end
$var reg       1 <    done_frame  $end
$var reg      18 =    rd_addr [17:0] $end
$upscope $end

$upscope $end


$scope module dut $end
$var wire      1 >    get_data  $end
$var wire      1 ?    reset_  $end
$var wire      1 #    clk  $end
$var wire      8 @    data [7:0] $end
$var reg       1 A    rd  $end
$var reg       1 B    sipo_en  $end
$var reg       1 C    latch_en  $end
$var reg       1 D    dp1_en  $end
$var reg       1 E    dp2_en  $end
$var reg       1 F    dp3_en  $end
$var reg       1 G    dp4_en  $end
$var reg       1 H    wr  $end
$var reg       1 I    done_frame  $end
$var reg      18 J    rd_addr [17:0] $end
$var reg       6 K    addr_cnt [5:0] $end
$var reg      12 L    blk_cnt [11:0] $end
$var reg       4 M    pipeline_cnt [3:0] $end
$var reg       1 N    enable_cnt  $end
$var reg       1 O    enable_dly_cnt  $end
$var reg       1 P    enable_blk_cnt  $end
$var reg      16 Q    n_state [15:0] $end
$var reg      16 R    c_state [15:0] $end
$upscope $end

$upscope $end

$enddefinitions $end
$dumpvars
0!
b0 "
0#
x$
x%
bx &
x'
x(
0)
0*
0+
0,
0-
0.
x/
bx 0
x1
x2
bx 3
x4
x5
x6
x7
x8
x9
x:
x;
x<
bx =
x>
x?
bx @
xA
xB
0C
0D
0E
0F
0G
0H
xI
bx J
bx K
bx L
bx M
xN
xO
xP
b0 Q
b0 R
$end
#5
1!
1#
06
07
08
09
0:
0;
0$
01
0%
02
b0 &
b0 3
b0 @
0?
0>
0A
0N
0B
0(
0'
#10
0!
0#
#15
1!
1#
04
05
b1 R
b0 L
b0 K
0I
0/
0P
b1 Q
1%
12
1?
#20
0!
0#
#25
1!
1#
0<
1$
11
1>
b10 Q
#30
0!
0#
#35
1!
1#
b10 R
1N
1A
b0 J
1B
1(
b0 0
1'
#40
0!
0#
#45
1!
1#
14
15
b0 =
b1 K
b1 J
b1 0
#50
0!
0#
#55
1!
1#
b1 =
b10 K
b10 J
b10 0
#60
0!
0#
#65
1!
1#
b10 =
b11 K
b11 J
b11 0
#70
0!
0#
#75
1!
1#
b11 =
b100 K
b100 J
b100 0
#80
0!
0#
#85
1!
1#
b100 =
b101 K
b101 J
b101 0
#90
0!
0#
#95
1!
1#
b101 =
b110 K
b110 J
b110 0
#100
0!
0#
#105
1!
1#
b110 =
b111 K
b111 J
b111 0
#110
0!
0#
#115
1!
1#
b111 =
b1000 K
b1000 J
b1000 0
#120
0!
0#
#125
1!
1#
b1000 =
b1001 K
b1001 J
b1001 0
#130
0!
0#
#135
1!
1#
b1001 =
b1010 K
b1010 J
b1010 0
#140
0!
0#
#145
1!
1#
b1010 =
b1011 K
b1011 J
b1011 0
#150
0!
0#
#155
1!
1#
b1011 =
b1100 K
b1100 J
b1100 0
#160
0!
0#
#165
1!
1#
b1100 =
b1101 K
b1101 J
b1101 0
#170
0!
0#
#175
1!
1#
b1101 =
b1110 K
b1110 J
b1110 0
#180
0!
0#
#185
1!
1#
b1110 =
b1111 K
b1111 J
b1111 0
#190
0!
0#
#195
1!
1#
b1111 =
b10000 K
b10000 J
b10000 0
#200
0!
0#
#205
1!
1#
b10000 =
b10001 K
b10001 J
b10001 0
#210
0!
0#
#215
1!
1#
b10001 =
b10010 K
b10010 J
b10010 0
#220
0!
0#
#225
1!
1#
b10010 =
b10011 K
b10011 J
b10011 0
#230
0!
0#
#235
1!
1#
b10011 =
b10100 K
b10100 J
b10100 0
#240
0!
0#
#245
1!
1#
b10100 =
b10101 K
b10101 J
b10101 0
#250
0!
0#
#255
1!
1#
b10101 =
b10110 K
b10110 J
b10110 0
#260
0!
0#
#265
1!
1#
b10110 =
b10111 K
b10111 J
b10111 0
#270
0!
0#
#275
1!
1#
b10111 =
b11000 K
b11000 J
b11000 0
#280
0!
0#
#285
1!
1#
b11000 =
b11001 K
b11001 J
b11001 0
#290
0!
0#
#295
1!
1#
b11001 =
b11010 K
b11010 J
b11010 0
#300
0!
0#
#305
1!
1#
b11010 =
b11011 K
b11011 J
b11011 0
#310
0!
0#
#315
1!
1#
b11011 =
b11100 K
b11100 J
b11100 0
#320
0!
0#
#325
1!
1#
b11100 =
b11101 K
b11101 J
b11101 0
#330
0!
0#
#335
1!
1#
b11101 =
b11110 K
b11110 J
b11110 0
#340
0!
0#
#345
1!
1#
b11110 =
b11111 K
b11111 J
b11111 0
#350
0!
0#
#355
1!
1#
b11111 =
b100000 K
b100000 J
b100000 0
#360
0!
0#
#365
1!
1#
b100000 =
b100001 K
b100001 J
b100001 0
#370
0!
0#
#375
1!
1#
b100001 =
b100010 K
b100010 J
b100010 0
#380
0!
0#
#385
1!
1#
b100010 =
b100011 K
b100011 J
b100011 0
#390
0!
0#
#395
1!
1#
b100011 =
b100100 K
b100100 J
b100100 0
#400
0!
0#
#405
1!
1#
b100100 =
b100101 K
b100101 J
b100101 0
#410
0!
0#
#415
1!
1#
b100101 =
b100110 K
b100110 J
b100110 0
#420
0!
0#
#425
1!
1#
b100110 =
b100111 K
b100111 J
b100111 0
#430
0!
0#
#435
1!
1#
b100111 =
b101000 K
b101000 J
b101000 0
#440
0!
0#
#445
1!
1#
b101000 =
b101001 K
b101001 J
b101001 0
#450
0!
0#
#455
1!
1#
b101001 =
b101010 K
b101010 J
b101010 0
#460
0!
0#
#465
1!
1#
b101010 =
b101011 K
b101011 J
b101011 0
#470
0!
0#
#475
1!
1#
b101011 =
b101100 K
b101100 J
b101100 0
#480
0!
0#
#485
1!
1#
b101100 =
b101101 K
b101101 J
b101101 0
#490
0!
0#
#495
1!
1#
b101101 =
b101110 K
b101110 J
b101110 0
#500
0!
0#
#505
1!
1#
b101110 =
b101111 K
b101111 J
b101111 0
#510
0!
0#
#515
1!
1#
b101111 =
b110000 K
b110000 J
b110000 0
#520
0!
0#
#525
1!
1#
b110000 =
b110001 K
b110001 J
b110001 0
#530
0!
0#
#535
1!
1#
b110001 =
b110010 K
b110010 J
b110010 0
#540
0!
0#
#545
1!
1#
b110010 =
b110011 K
b110011 J
b110011 0
#550
0!
0#
#555
1!
1#
b110011 =
b110100 K
b110100 J
b110100 0
#560
0!
0#
#565
1!
1#
b110100 =
b110101 K
b110101 J
b110101 0
#570
0!
0#
#575
1!
1#
b110101 =
b110110 K
b110110 J
b110110 0
#580
0!
0#
#585
1!
1#
b110110 =
b110111 K
b110111 J
b110111 0
#590
0!
0#
#595
1!
1#
b110111 =
b111000 K
b111000 J
b111000 0
#600
0!
0#
#605
1!
1#
b111000 =
b111001 K
b111001 J
b111001 0
#610
0!
0#
#615
1!
1#
b111001 =
b111010 K
b111010 J
b111010 0
#620
0!
0#
#625
1!
1#
b111010 =
b111011 K
b111011 J
b111011 0
#630
0!
0#
#635
1!
1#
b111011 =
b111100 K
b111100 J
b111100 0
#640
0!
0#
#645
1!
1#
b111100 =
b111101 K
b111101 J
b111101 0
#650
0!
0#
#655
1!
1#
b111101 =
b111110 K
b111110 J
b111110 0
#660
0!
0#
#665
1!
1#
b111110 =
b111111 K
b111111 J
b10000 Q
b111111 0
#670
0!
0#
#675
1!
1#
b111111 =
b10000 R
b0 K
0A
0N
b100000 Q
0B
0(
0'
#680
0!
0#
#685
1!
1#
04
05
b100000 R
1C
1)
b1000000 Q
#690
0!
0#
#695
1!
1#
16
b1000000 R
0C
0)
b10000000 Q
#700
0!
0#
#705
1!
1#
06
b10000000 R
1D
1*
b100000000 Q
#710
0!
0#
#715
1!
1#
17
b100000000 R
0D
0*
b1000000000 Q
#720
0!
0#
#725
1!
1#
07
b1000000000 R
1E
1+
b10000000000 Q
#730
0!
0#
#735
1!
1#
18
b10000000000 R
0E
0+
b100000000000 Q
#740
0!
0#
#745
1!
1#
08
b100000000000 R
1F
1,
b1000000000000 Q
#750
0!
0#
#755
1!
1#
19
b1000000000000 R
0F
0,
b10000000000000 Q
#760
0!
0#
#765
1!
1#
09
b10000000000000 R
1G
1-
b100000000000000 Q
#770
0!
0#
#775
1!
1#
1:
b100000000000000 R
0G
0-
b1000000000000000 Q
#780
0!
0#
#785
1!
1#
0:
b1000000000000000 R
1H
1.
b100 Q
#790
0!
0#
#795
1!
1#
1;
b100 R
0H
0.
1P
b1000 Q
#800
0!
0#
#805
1!
1#
0;
b1000 R
b10 Q
#810
0!
0#
#815
1!
1#
b10 R
b1 L
1N
1A
b1000000 J
1B
1(
b1000000 0
1'
#820
0!
0#
#825
1!
1#
14
15
b1000000 =
b1 K
b1000001 J
b1000001 0
#830
0!
0#
#835
1!
1#
b1000001 =
b10 K
b1000010 J
b1000010 0
#840
0!
0#
#845
1!
1#
b1000010 =
b11 K
b1000011 J
b1000011 0
#850
0!
0#
#855
1!
1#
b1000011 =
b100 K
b1000100 J
b1000100 0
#860
0!
0#
#865
1!
1#
b1000100 =
b101 K
b1000101 J
b1000101 0
#870
0!
0#
#875
1!
1#
b1000101 =
b110 K
b1000110 J
b1000110 0
#880
0!
0#
#885
1!
1#
b1000110 =
b111 K
b1000111 J
b1000111 0
#890
0!
0#
#895
1!
1#
b1000111 =
b1000 K
b1001000 J
b1001000 0
#900
0!
0#
#905
1!
1#
b1001000 =
b1001 K
b1001001 J
b1001001 0
#910
0!
0#
#915
1!
1#
b1001001 =
b1010 K
b1001010 J
b1001010 0
#920
0!
0#
#925
1!
1#
b1001010 =
b1011 K
b1001011 J
b1001011 0
#930
0!
0#
#935
1!
1#
b1001011 =
b1100 K
b1001100 J
b1001100 0
#940
0!
0#
#945
1!
1#
b1001100 =
b1101 K
b1001101 J
b1001101 0
#950
0!
0#
#955
1!
1#
b1001101 =
b1110 K
b1001110 J
b1001110 0
#960
0!
0#
#965
1!
1#
b1001110 =
b1111 K
b1001111 J
b1001111 0
#970
0!
0#
#975
1!
1#
b1001111 =
b10000 K
b1010000 J
b1010000 0
#980
0!
0#
#985
1!
1#
b1010000 =
b10001 K
b1010001 J
b1010001 0
#990
0!
0#
#995
1!
1#
b1010001 =
b10010 K
b1010010 J
b1010010 0
#1000
0!
0#
#1005
1!
1#
b1010010 =
b10011 K
b1010011 J
b1010011 0
#1010
0!
0#
#1015
1!
1#
b1010011 =
b10100 K
b1010100 J
b1010100 0
#1020
0!
0#
#1025
1!
1#
b1010100 =
b10101 K
b1010101 J
b1010101 0
#1030
0!
0#
#1035
1!
1#
b1010101 =
b10110 K
b1010110 J
b1010110 0
#1040
0!
0#
#1045
1!
1#
b1010110 =
b10111 K
b1010111 J
b1010111 0
#1050
0!
0#
#1055
1!
1#
b1010111 =
b11000 K
b1011000 J
b1011000 0
#1060
0!
0#
#1065
1!
1#
b1011000 =
b11001 K
b1011001 J
b1011001 0
#1070
0!
0#
#1075
1!
1#
b1011001 =
b11010 K
b1011010 J
b1011010 0
#1080
0!
0#
#1085
1!
1#
b1011010 =
b11011 K
b1011011 J
b1011011 0
#1090
0!
0#
#1095
1!
1#
b1011011 =
b11100 K
b1011100 J
b1011100 0
#1100
0!
0#
#1105
1!
1#
b1011100 =
b11101 K
b1011101 J
b1011101 0
#1110
0!
0#
#1115
1!
1#
b1011101 =
b11110 K
b1011110 J
b1011110 0
#1120
0!
0#
#1125
1!
1#
b1011110 =
b11111 K
b1011111 J
b1011111 0
#1130
0!
0#
#1135
1!
1#
b1011111 =
b100000 K
b1100000 J
b1100000 0
#1140
0!
0#
#1145
1!
1#
b1100000 =
b100001 K
b1100001 J
b1100001 0
#1150
0!
0#
#1155
1!
1#
b1100001 =
b100010 K
b1100010 J
b1100010 0
#1160
0!
0#
#1165
1!
1#
b1100010 =
b100011 K
b1100011 J
b1100011 0
#1170
0!
0#
#1175
1!
1#
b1100011 =
b100100 K
b1100100 J
b1100100 0
#1180
0!
0#
#1185
1!
1#
b1100100 =
b100101 K
b1100101 J
b1100101 0
#1190
0!
0#
#1195
1!
1#
b1100101 =
b100110 K
b1100110 J
b1100110 0
#1200
0!
0#
#1205
1!
1#
b1100110 =
b100111 K
b1100111 J
b1100111 0
#1210
0!
0#
#1215
1!
1#
b1100111 =
b101000 K
b1101000 J
b1101000 0
#1220
0!
0#
#1225
1!
1#
b1101000 =
b101001 K
b1101001 J
b1101001 0
#1230
0!
0#
#1235
1!
1#
b1101001 =
b101010 K
b1101010 J
b1101010 0
#1240
0!
0#
#1245
1!
1#
b1101010 =
b101011 K
b1101011 J
b1101011 0
#1250
0!
0#
#1255
1!
1#
b1101011 =
b101100 K
b1101100 J
b1101100 0
#1260
0!
0#
#1265
1!
1#
b1101100 =
b101101 K
b1101101 J
b1101101 0
#1270
0!
0#
#1275
1!
1#
b1101101 =
b101110 K
b1101110 J
b1101110 0
#1280
0!
0#
#1285
1!
1#
b1101110 =
b101111 K
b1101111 J
b1101111 0
#1290
0!
0#
#1295
1!
1#
b1101111 =
b110000 K
b1110000 J
b1110000 0
#1300
0!
0#
#1305
1!
1#
b1110000 =
b110001 K
b1110001 J
b1110001 0
#1310
0!
0#
#1315
1!
1#
b1110001 =
b110010 K
b1110010 J
b1110010 0
#1320
0!
0#
#1325
1!
1#
b1110010 =
b110011 K
b1110011 J
b1110011 0
#1330
0!
0#
#1335
1!
1#
b1110011 =
b110100 K
b1110100 J
b1110100 0
#1340
0!
0#
#1345
1!
1#
b1110100 =
b110101 K
b1110101 J
b1110101 0
#1350
0!
0#
#1355
1!
1#
b1110101 =
b110110 K
b1110110 J
b1110110 0
#1360
0!
0#
#1365
1!
1#
b1110110 =
b110111 K
b1110111 J
b1110111 0
#1370
0!
0#
#1375
1!
1#
b1110111 =
b111000 K
b1111000 J
b1111000 0
#1380
0!
0#
#1385
1!
1#
b1111000 =
b111001 K
b1111001 J
b1111001 0
#1390
0!
0#
#1395
1!
1#
b1111001 =
b111010 K
b1111010 J
b1111010 0
#1400
0!
0#
#1405
1!
1#
b1111010 =
b111011 K
b1111011 J
b1111011 0
#1410
0!
0#
#1415
1!
1#
b1111011 =
b111100 K
b1111100 J
b1111100 0
#1420
0!
0#
#1425
1!
1#
b1111100 =
b111101 K
b1111101 J
b1111101 0
#1430
0!
0#
#1435
1!
1#
b1111101 =
b111110 K
b1111110 J
b1111110 0
#1440
0!
0#
#1445
1!
1#
b1111110 =
b111111 K
b1111111 J
b10000 Q
b1111111 0
#1450
0!
0#
#1455
1!
1#
b1111111 =
b10000 R
b0 K
0A
0N
b100000 Q
0B
0(
0'
#1460
0!
0#
#1465
1!
1#
04
05
b100000 R
1C
1)
b1000000 Q
#1470
0!
0#
#1475
1!
1#
16
b1000000 R
0C
0)
b10000000 Q
#1480
0!
0#
#1485
1!
1#
06
b10000000 R
1D
1*
b100000000 Q
#1490
0!
0#
#1495
1!
1#
17
b100000000 R
0D
0*
b1000000000 Q
#1500
0!
0#
#1505
1!
1#
07
b1000000000 R
1E
1+
b10000000000 Q
#1510
0!
0#
#1515
1!
1#
18
b10000000000 R
0E
0+
b100000000000 Q
#1520
0!
0#
#1525
1!
1#
08
b100000000000 R
1F
1,
b1000000000000 Q
#1530
0!
0#
#1535
1!
1#
19
b1000000000000 R
0F
0,
b10000000000000 Q
#1540
0!
0#
#1545
1!
1#
09
b10000000000000 R
1G
1-
b100000000000000 Q
#1550
0!
0#
#1555
1!
1#
1:
b100000000000000 R
0G
0-
b1000000000000000 Q
#1560
0!
0#
#1565
1!
1#
0:
b1000000000000000 R
1H
1.
b100 Q
#1570
0!
0#
#1575
1!
1#
1;
b100 R
0H
0.
b1000 Q
#1580
0!
0#
#1585
1!
1#
0;
b1000 R
b10 Q
#1590
0!
0#
#1595
1!
1#
b10 R
b10 L
1N
1A
b10000000 J
1B
1(
b10000000 0
1'
#1600
0!
0#
#1605
1!
1#
14
15
b10000000 =
b1 K
b10000001 J
b10000001 0
#1610
0!
0#
#1615
1!
1#
b10000001 =
b10 K
b10000010 J
b10000010 0
#1620
0!
0#
#1625
1!
1#
b10000010 =
b11 K
b10000011 J
b10000011 0
#1630
0!
0#
#1635
1!
1#
b10000011 =
b100 K
b10000100 J
b10000100 0
#1640
0!
0#
#1645
1!
1#
b10000100 =
b101 K
b10000101 J
b10000101 0
#1650
0!
0#
#1655
1!
1#
b10000101 =
b110 K
b10000110 J
b10000110 0
#1660
0!
0#
#1665
1!
1#
b10000110 =
b111 K
b10000111 J
b10000111 0
#1670
0!
0#
#1675
1!
1#
b10000111 =
b1000 K
b10001000 J
b10001000 0
#1680
0!
0#
#1685
1!
1#
b10001000 =
b1001 K
b10001001 J
b10001001 0
#1690
0!
0#
#1695
1!
1#
b10001001 =
b1010 K
b10001010 J
b10001010 0
#1700
0!
0#
#1705
1!
1#
b10001010 =
b1011 K
b10001011 J
b10001011 0
#1710
0!
0#
#1715
1!
1#
b10001011 =
b1100 K
b10001100 J
b10001100 0
#1720
0!
0#
#1725
1!
1#
b10001100 =
b1101 K
b10001101 J
b10001101 0
#1730
0!
0#
#1735
1!
1#
b10001101 =
b1110 K
b10001110 J
b10001110 0
#1740
0!
0#
#1745
1!
1#
b10001110 =
b1111 K
b10001111 J
b10001111 0
#1750
0!
0#
#1755
1!
1#
b10001111 =
b10000 K
b10010000 J
b10010000 0
#1760
0!
0#
#1765
1!
1#
b10010000 =
b10001 K
b10010001 J
b10010001 0
#1770
0!
0#
#1775
1!
1#
b10010001 =
b10010 K
b10010010 J
b10010010 0
#1780
0!
0#
#1785
1!
1#
b10010010 =
b10011 K
b10010011 J
b10010011 0
#1790
0!
0#
#1795
1!
1#
b10010011 =
b10100 K
b10010100 J
b10010100 0
#1800
0!
0#
#1805
1!
1#
b10010100 =
b10101 K
b10010101 J
b10010101 0
#1810
0!
0#
#1815
1!
1#
b10010101 =
b10110 K
b10010110 J
b10010110 0
#1820
0!
0#
#1825
1!
1#
b10010110 =
b10111 K
b10010111 J
b10010111 0
#1830
0!
0#
#1835
1!
1#
b10010111 =
b11000 K
b10011000 J
b10011000 0
#1840
0!
0#
#1845
1!
1#
b10011000 =
b11001 K
b10011001 J
b10011001 0
#1850
0!
0#
#1855
1!
1#
b10011001 =
b11010 K
b10011010 J
b10011010 0
#1860
0!
0#
#1865
1!
1#
b10011010 =
b11011 K
b10011011 J
b10011011 0
#1870
0!
0#
#1875
1!
1#
b10011011 =
b11100 K
b10011100 J
b10011100 0
#1880
0!
0#
#1885
1!
1#
b10011100 =
b11101 K
b10011101 J
b10011101 0
#1890
0!
0#
#1895
1!
1#
b10011101 =
b11110 K
b10011110 J
b10011110 0
#1900
0!
0#
#1905
1!
1#
b10011110 =
b11111 K
b10011111 J
b10011111 0
#1910
0!
0#
#1915
1!
1#
b10011111 =
b100000 K
b10100000 J
b10100000 0
#1920
0!
0#
#1925
1!
1#
b10100000 =
b100001 K
b10100001 J
b10100001 0
#1930
0!
0#
#1935
1!
1#
b10100001 =
b100010 K
b10100010 J
b10100010 0
#1940
0!
0#
#1945
1!
1#
b10100010 =
b100011 K
b10100011 J
b10100011 0
#1950
0!
0#
#1955
1!
1#
b10100011 =
b100100 K
b10100100 J
b10100100 0
#1960
0!
0#
#1965
1!
1#
b10100100 =
b100101 K
b10100101 J
b10100101 0
#1970
0!
0#
#1975
1!
1#
b10100101 =
b100110 K
b10100110 J
b10100110 0
#1980
0!
0#
#1985
1!
1#
b10100110 =
b100111 K
b10100111 J
b10100111 0
#1990
0!
0#
#1995
1!
1#
b10100111 =
b101000 K
b10101000 J
b10101000 0
#2000
0!
0#
#2005
1!
1#
b10101000 =
b101001 K
b10101001 J
b10101001 0
#2010
0!
0#
#2015
1!
1#
b10101001 =
b101010 K
b10101010 J
b10101010 0
#2020
0!
0#
#2025
1!
1#
b10101010 =
b101011 K
b10101011 J
b10101011 0
#2030
0!
0#
#2035
1!
1#
b10101011 =
b101100 K
b10101100 J
b10101100 0
#2040
0!
0#
#2045
1!
1#
b10101100 =
b101101 K
b10101101 J
b10101101 0
#2050
0!
0#
#2055
1!
1#
b10101101 =
b101110 K
b10101110 J
b10101110 0
#2060
0!
0#
#2065
1!
1#
b10101110 =
b101111 K
b10101111 J
b10101111 0
#2070
0!
0#
#2075
1!
1#
b10101111 =
b110000 K
b10110000 J
b10110000 0
#2080
0!
0#
#2085
1!
1#
b10110000 =
b110001 K
b10110001 J
b10110001 0
#2090
0!
0#
#2095
1!
1#
b10110001 =
b110010 K
b10110010 J
b10110010 0
#2100
0!
0#
#2105
1!
1#
b10110010 =
b110011 K
b10110011 J
b10110011 0
#2110
0!
0#
#2115
1!
1#
b10110011 =
b110100 K
b10110100 J
b10110100 0
#2120
0!
0#
#2125
1!
1#
b10110100 =
b110101 K
b10110101 J
b10110101 0
#2130
0!
0#
#2135
1!
1#
b10110101 =
b110110 K
b10110110 J
b10110110 0
#2140
0!
0#
#2145
1!
1#
b10110110 =
b110111 K
b10110111 J
b10110111 0
#2150
0!
0#
#2155
1!
1#
b10110111 =
b111000 K
b10111000 J
b10111000 0
#2160
0!
0#
#2165
1!
1#
b10111000 =
b111001 K
b10111001 J
b10111001 0
#2170
0!
0#
#2175
1!
1#
b10111001 =
b111010 K
b10111010 J
b10111010 0
#2180
0!
0#
#2185
1!
1#
b10111010 =
b111011 K
b10111011 J
b10111011 0
#2190
0!
0#
#2195
1!
1#
b10111011 =
b111100 K
b10111100 J
b10111100 0
#2200
0!
0#
#2205
1!
1#
b10111100 =
b111101 K
b10111101 J
b10111101 0
#2210
0!
0#
#2215
1!
1#
b10111101 =
b111110 K
b10111110 J
b10111110 0
#2220
0!
0#
#2225
1!
1#
b10111110 =
b111111 K
b10111111 J
b10000 Q
b10111111 0
#2230
0!
0#
#2235
1!
1#
b10111111 =
b10000 R
b0 K
0A
0N
b100000 Q
0B
0(
0'
#2240
0!
0#
#2245
1!
1#
04
05
b100000 R
1C
1)
b1000000 Q
#2250
0!
0#
#2255
1!
1#
16
b1000000 R
0C
0)
b10000000 Q
#2260
0!
0#
#2265
1!
1#
06
b10000000 R
1D
1*
b100000000 Q
#2270
0!
0#
#2275
1!
1#
17
b100000000 R
0D
0*
b1000000000 Q
#2280
0!
0#
#2285
1!
1#
07
b1000000000 R
1E
1+
b10000000000 Q
#2290
0!
0#
#2295
1!
1#
18
b10000000000 R
0E
0+
b100000000000 Q
#2300
0!
0#
#2305
1!
1#
08
b100000000000 R
1F
1,
b1000000000000 Q
#2310
0!
0#
#2315
1!
1#
19
b1000000000000 R
0F
0,
b10000000000000 Q
#2320
0!
0#
#2325
1!
1#
09
b10000000000000 R
1G
1-
b100000000000000 Q
#2330
0!
0#
#2335
1!
1#
1:
b100000000000000 R
0G
0-
b1000000000000000 Q
#2340
0!
0#
#2345
1!
1#
0:
b1000000000000000 R
1H
1.
b100 Q
#2350
0!
0#
#2355
1!
1#
1;
b100 R
0H
0.
b1000 Q
#2360
0!
0#
#2365
1!
1#
0;
b1000 R
b10 Q
#2370
0!
0#
#2375
1!
1#
b10 R
b11 L
1N
1A
b11000000 J
1B
1(
b11000000 0
1'
#2380
0!
0#
#2385
1!
1#
14
15
b11000000 =
b1 K
b11000001 J
b11000001 0
#2390
0!
0#
#2395
1!
1#
b11000001 =
b10 K
b11000010 J
b11000010 0
#2400
0!
0#
#2405
1!
1#
b11000010 =
b11 K
b11000011 J
b11000011 0
#2410
0!
0#
#2415
1!
1#
b11000011 =
b100 K
b11000100 J
b11000100 0
#2420
0!
0#
#2425
1!
1#
b11000100 =
b101 K
b11000101 J
b11000101 0
#2430
0!
0#
#2435
1!
1#
b11000101 =
b110 K
b11000110 J
b11000110 0
#2440
0!
0#
#2445
1!
1#
b11000110 =
b111 K
b11000111 J
b11000111 0
#2450
0!
0#
#2455
1!
1#
b11000111 =
b1000 K
b11001000 J
b11001000 0
#2460
0!
0#
#2465
1!
1#
b11001000 =
b1001 K
b11001001 J
b11001001 0
#2470
0!
0#
#2475
1!
1#
b11001001 =
b1010 K
b11001010 J
b11001010 0
#2480
0!
0#
#2485
1!
1#
b11001010 =
b1011 K
b11001011 J
b11001011 0
#2490
0!
0#
#2495
1!
1#
b11001011 =
b1100 K
b11001100 J
b11001100 0
#2500
0!
0#
#2505
1!
1#
b11001100 =
b1101 K
b11001101 J
b11001101 0
#2510
0!
0#
#2515
1!
1#
b11001101 =
b1110 K
b11001110 J
b11001110 0
#2520
0!
0#
#2525
1!
1#
b11001110 =
b1111 K
b11001111 J
b11001111 0
#2530
0!
0#
#2535
1!
1#
b11001111 =
b10000 K
b11010000 J
b11010000 0
#2540
0!
0#
#2545
1!
1#
b11010000 =
b10001 K
b11010001 J
b11010001 0
#2550
0!
0#
#2555
1!
1#
b11010001 =
b10010 K
b11010010 J
b11010010 0
#2560
0!
0#
#2565
1!
1#
b11010010 =
b10011 K
b11010011 J
b11010011 0
#2570
0!
0#
#2575
1!
1#
b11010011 =
b10100 K
b11010100 J
b11010100 0
#2580
0!
0#
#2585
1!
1#
b11010100 =
b10101 K
b11010101 J
b11010101 0
#2590
0!
0#
#2595
1!
1#
b11010101 =
b10110 K
b11010110 J
b11010110 0
#2600
0!
0#
#2605
1!
1#
b11010110 =
b10111 K
b11010111 J
b11010111 0
#2610
0!
0#
#2615
1!
1#
b11010111 =
b11000 K
b11011000 J
b11011000 0
#2620
0!
0#
#2625
1!
1#
b11011000 =
b11001 K
b11011001 J
b11011001 0
#2630
0!
0#
#2635
1!
1#
b11011001 =
b11010 K
b11011010 J
b11011010 0
#2640
0!
0#
#2645
1!
1#
b11011010 =
b11011 K
b11011011 J
b11011011 0
#2650
0!
0#
#2655
1!
1#
b11011011 =
b11100 K
b11011100 J
b11011100 0
#2660
0!
0#
#2665
1!
1#
b11011100 =
b11101 K
b11011101 J
b11011101 0
#2670
0!
0#
#2675
1!
1#
b11011101 =
b11110 K
b11011110 J
b11011110 0
#2680
0!
0#
#2685
1!
1#
b11011110 =
b11111 K
b11011111 J
b11011111 0
#2690
0!
0#
#2695
1!
1#
b11011111 =
b100000 K
b11100000 J
b11100000 0
#2700
0!
0#
#2705
1!
1#
b11100000 =
b100001 K
b11100001 J
b11100001 0
#2710
0!
0#
#2715
1!
1#
b11100001 =
b100010 K
b11100010 J
b11100010 0
#2720
0!
0#
#2725
1!
1#
b11100010 =
b100011 K
b11100011 J
b11100011 0
#2730
0!
0#
#2735
1!
1#
b11100011 =
b100100 K
b11100100 J
b11100100 0
#2740
0!
0#
#2745
1!
1#
b11100100 =
b100101 K
b11100101 J
b11100101 0
#2750
0!
0#
#2755
1!
1#
b11100101 =
b100110 K
b11100110 J
b11100110 0
#2760
0!
0#
#2765
1!
1#
b11100110 =
b100111 K
b11100111 J
b11100111 0
#2770
0!
0#
#2775
1!
1#
b11100111 =
b101000 K
b11101000 J
b11101000 0
#2780
0!
0#
#2785
1!
1#
b11101000 =
b101001 K
b11101001 J
b11101001 0
#2790
0!
0#
#2795
1!
1#
b11101001 =
b101010 K
b11101010 J
b11101010 0
#2800
0!
0#
#2805
1!
1#
b11101010 =
b101011 K
b11101011 J
b11101011 0
#2810
0!
0#
#2815
1!
1#
b11101011 =
b101100 K
b11101100 J
b11101100 0
#2820
0!
0#
#2825
1!
1#
b11101100 =
b101101 K
b11101101 J
b11101101 0
#2830
0!
0#
#2835
1!
1#
b11101101 =
b101110 K
b11101110 J
b11101110 0
#2840
0!
0#
#2845
1!
1#
b11101110 =
b101111 K
b11101111 J
b11101111 0
#2850
0!
0#
#2855
1!
1#
b11101111 =
b110000 K
b11110000 J
b11110000 0
#2860
0!
0#
#2865
1!
1#
b11110000 =
b110001 K
b11110001 J
b11110001 0
#2870
0!
0#
#2875
1!
1#
b11110001 =
b110010 K
b11110010 J
b11110010 0
#2880
0!
0#
#2885
1!
1#
b11110010 =
b110011 K
b11110011 J
b11110011 0
#2890
0!
0#
#2895
1!
1#
b11110011 =
b110100 K
b11110100 J
b11110100 0
#2900
0!
0#
#2905
1!
1#
b11110100 =
b110101 K
b11110101 J
b11110101 0
#2910
0!
0#
#2915
1!
1#
b11110101 =
b110110 K
b11110110 J
b11110110 0
#2920
0!
0#
#2925
1!
1#
b11110110 =
b110111 K
b11110111 J
b11110111 0
#2930
0!
0#
#2935
1!
1#
b11110111 =
b111000 K
b11111000 J
b11111000 0
#2940
0!
0#
#2945
1!
1#
b11111000 =
b111001 K
b11111001 J
b11111001 0
#2950
0!
0#
#2955
1!
1#
b11111001 =
b111010 K
b11111010 J
b11111010 0
#2960
0!
0#
#2965
1!
1#
b11111010 =
b111011 K
b11111011 J
b11111011 0
#2970
0!
0#
#2975
1!
1#
b11111011 =
b111100 K
b11111100 J
b11111100 0
#2980
0!
0#
#2985
1!
1#
b11111100 =
b111101 K
b11111101 J
b11111101 0
#2990
0!
0#
#2995
1!
1#
b11111101 =
b111110 K
b11111110 J
b11111110 0
#3000
0!
0#
